If Only We Could Bike Away from COVID · Nitya's Portfolio Website
…
# The actual mean of bike rentals are calculated.    
actual_monthly_rides <- bike %>% 
  group_by(year, month) %>% 
  summarise(mean_actual_rides = mean(bikes_hired)) 

## `summarise()` regrouping output by 'year' (override with `.groups` argument)

actual_monthly_rides

## # A tibble: 68 x 3
## # Groups:   year [6]
##     year month mean_actual_rides
##    <dbl> <ord>             <dbl>
##  1  2015 Jan              18828.
##  2  2015 Feb              19617.
##  3  2015 Mar              22625.
##  4  2015 Apr              27951.
##  5  2015 May              29031.
##  6  2015 Jun              34659.
##  7  2015 Jul              36607.
##  8  2015 Aug              33643.
##  9  2015 Sep              30114.
## 10  2015 Oct              28560.
## # … with 58 more rows
…
# The actual median of bike rentals are calculated.    
median_actual_monthly_rides <- bike %>% 
  group_by(year, month) %>% 
  summarise(median_actual_rides = median(bikes_hired))

## `summarise()` regrouping output by 'year' (override with `.groups` argument)

median_actual_monthly_rides

## # A tibble: 68 x 3
## # Groups:   year [6]
##     year month median_actual_rides
##    <dbl> <ord>               <dbl>
##  1  2015 Jan                21405 
##  2  2015 Feb                21080 
##  3  2015 Mar                24230 
##  4  2015 Apr                29924.
##  5  2015 May                29822 
##  6  2015 Jun                35694.
##  7  2015 Jul                38120 
##  8  2015 Aug                34567 
##  9  2015 Sep                30738 
## 10  2015 Oct                30096 
## # … with 58 more rows
…
options(scipen=999)

# Using the mean, the average number of bikes hired in each month is shown below. 
expected_weekly_rides <- bike %>%
  group_by(week) %>%
  summarise(avg_weekly_rides = mean(bikes_hired))

## `summarise()` ungrouping output (override with `.groups` argument)

expected_weekly_rides

## # A tibble: 53 x 2
##     week avg_weekly_rides
##    <dbl>            <dbl>
##  1     1           16235.
##  2     2           21830.
##  3     3           21740.
##  4     4           21903.
##  5     5           21413.
##  6     6           20844.
##  7     7           22427.
##  8     8           22538.
##  9     9           20315.
## 10    10           23424 
## # … with 43 more rows

# The actual mean of bike rentals are calculated.    
actual_weekly_rides <- bike %>% 
  group_by(year, week) %>% 
  summarise(mean_weekly_actual_rides = mean(bikes_hired)) 

## `summarise()` regrouping output by 'year' (override with `.groups` argument)

actual_weekly_rides

## # A tibble: 298 x 3
## # Groups:   year [6]
##     year  week mean_weekly_actual_rides
##    <dbl> <dbl>                    <dbl>
##  1  2015     1                   10038.
##  2  2015     2                   18786.
##  3  2015     3                   20131.
##  4  2015     4                   21158.
##  5  2015     5                   19201.
##  6  2015     6                   19386.
##  7  2015     7                   20787 
##  8  2015     8                   18711.
##  9  2015     9                   20213.
## 10  2015    10                   24196.
## # … with 288 more rows

excess_rentals_weekly <- left_join(actual_weekly_rides, 
                                  expected_weekly_rides, by="week"
                                  ) %>% 
  mutate(excess_rentals_week = mean_weekly_actual_rides - avg_weekly_rides)

excess_rentals_weekly

## # A tibble: 298 x 5
## # Groups:   year [6]
##     year  week mean_weekly_actual_rides avg_weekly_rides excess_rentals_week
##    <dbl> <dbl>                    <dbl>            <dbl>               <dbl>
##  1  2015     1                   10038.           16235.              -6197.
##  2  2015     2                   18786.           21830.              -3043.
##  3  2015     3                   20131.           21740.              -1609.
##  4  2015     4                   21158.           21903.               -745.
##  5  2015     5                   19201.           21413.              -2212.
##  6  2015     6                   19386.           20844.              -1458.
##  7  2015     7                   20787            22427.              -1640.
##  8  2015     8                   18711.           22538.              -3828.
##  9  2015     9                   20213.           20315.               -102.
## 10  2015    10                   24196.           23424                 772.
## # … with 288 more rows

percent_changes <- excess_rentals_weekly %>% 
  mutate(change_percent = (excess_rentals_week/avg_weekly_rides)*100)

percent_changes

## # A tibble: 298 x 6
## # Groups:   year [6]
##     year  week mean_weekly_act… avg_weekly_rides excess_rentals_… change_percent
##    <dbl> <dbl>            <dbl>            <dbl>            <dbl>          <dbl>
##  1  2015     1           10038.           16235.           -6197.        -38.2  
##  2  2015     2           18786.           21830.           -3043.        -13.9  
##  3  2015     3           20131.           21740.           -1609.         -7.40 
##  4  2015     4           21158.           21903.            -745.         -3.40 
##  5  2015     5           19201.           21413.           -2212.        -10.3  
##  6  2015     6           19386.           20844.           -1458.         -7.00 
##  7  2015     7           20787            22427.           -1640.         -7.31 
##  8  2015     8           18711.           22538.           -3828.        -17.0  
##  9  2015     9           20213.           20315.            -102.         -0.502
## 10  2015    10           24196.           23424              772.          3.30 
## # … with 288 more rows
…
