Et tu, Brexit? · Nitya's Portfolio Website
…
# define specifics for plot
brexit_filtered <- brexit_results %>% 
                    select(leave_share, lab_2015, ukip_2015, con_2015, ld_2015)

brexit_filtered

## # A tibble: 632 x 5
##    leave_share lab_2015 ukip_2015 con_2015 ld_2015
##          <dbl>    <dbl>     <dbl>    <dbl>   <dbl>
##  1        57.9     18.3     17.9      50.6    8.82
##  2        67.8     22.4     19.6      52.0    3.37
##  3        38.6     26.7      8.01     53.0    8.38
##  4        65.3     34.8     15.9      44.0    2.98
##  5        49.7     11.2     14.4      60.8    7.19
##  6        70.5     41.0     21.4      22.4   14.8 
##  7        59.9     18.4     18.8      52.5    5.98
##  8        61.8     49.8     21.8      22.1    2.42
##  9        51.8     15.1     19.7      50.7   10.6 
## 10        50.3     21.3     13.9      53.0    5.93
## # … with 622 more rows
…
