High-schoolers & (Hypothe)size · Nitya's Portfolio Website
…
# saving null distribution
null_dist <- yrbss %>%
  specify(weight ~ physical_3plus) %>%
  hypothesize(null = "independence") %>%  
  # here hypothesize is used to set null hypothesis as a test for independence i.e. no difference b/w two population means
  # in case on 1 sample, we can set null = "point" to test hypothesis relative to a point estimate
  generate(reps = 1000, type = "permute") %>% # type is set to permute; argument used when generating a null distribution for a hypothesis test
  calculate(stat = "diff in means", order = c("yes", "no"))

## Warning: Removed 1219 rows containing missing values.

null_dist

## # A tibble: 1,000 x 2
##    replicate    stat
##        <int>   <dbl>
##  1         1  0.885 
##  2         2 -0.102 
##  3         3 -0.435 
##  4         4 -0.158 
##  5         5 -0.0184
##  6         6  0.0134
##  7         7 -0.437 
##  8         8 -0.312 
##  9         9 -0.229 
## 10        10 -0.477 
## # … with 990 more rows
…
